# Blender MTL File: 'None'
# Material Count: 1

newmtl material12.002
Ns 19.607843
Ka 0.000000 0.000000 0.000000
Kd 0.700000 0.700000 0.700000
Ks 0.000000 0.000000 0.000000
Ke 0.000000 0.000000 0.000000
Ni 1.000000
d 1.000000
illum 2
map_Kd ball.png
